<?xml version="1.0" encoding="UTF-8" standalone="no"?>
<!DOCTYPE svg PUBLIC "-//W3C//DTD SVG 1.1//EN" "http://www.w3.org/Graphics/SVG/1.1/DTD/svg11.dtd">
<svg width="100%" height="100%" viewBox="0 0 126 125" version="1.1" xmlns="http://www.w3.org/2000/svg" xmlns:xlink="http://www.w3.org/1999/xlink" xml:space="preserve" xmlns:serif="http://www.serif.com/" style="fill-rule:evenodd;clip-rule:evenodd;stroke-linejoin:round;stroke-miterlimit:2;">
    <g transform="matrix(0.125,0,0,-0.125,0,125)">
        <g id="g10">
            <g id="g12">
                <path id="path14" d="M670.699,243.441C681.563,243.441 695.098,242.59 708.48,243.594C758.523,247.34 766.098,260.875 745.395,304.922C718.109,362.969 674.27,401.84 610.387,417.34C578.336,425.113 558.66,442.742 549.102,474.238C537.555,512.289 514.625,542.965 473.984,555.535C440.816,565.797 421.813,586.695 411.93,618.66C389.719,690.527 328.633,722.172 265.094,750.699C254.379,755.508 242.387,757.344 244.117,740.574C251.809,665.945 243.93,586.051 314.555,531.594C333.121,517.281 342.859,498.293 347.504,475.98C361.211,410.176 403.148,371.145 469.238,356.078C499.871,349.098 527.73,335.973 540.082,307.328C564.918,249.762 610.977,236.742 670.699,243.441" style="fill:rgb(119,170,65);fill-rule:nonzero;"/>
                <path id="path16" d="M500.051,903.883C275.855,903.883 94.106,722.141 94.106,497.938C94.106,273.746 275.855,92.004 500.051,92.004C724.242,92.004 905.992,273.746 905.992,497.938C905.992,722.141 724.242,903.883 500.051,903.883ZM500.051,865.824C702.898,865.824 867.934,700.793 867.934,497.938C867.934,295.09 702.898,130.059 500.051,130.059C297.195,130.059 132.168,295.09 132.168,497.938C132.168,700.793 297.195,865.824 500.051,865.824" style="fill:rgb(119,170,65);fill-rule:nonzero;"/>
            </g>
        </g>
    </g>
</svg>
